{
    "defaultSeverity": "error",
    "extends": [
        "tslint:recommended"
    ],
    "jsRules": {},
    "rules": {
        "interface-name": [false],
        "object-literal-sort-keys": false
    },
    "rulesDirectory": []
}